<svg height="48" width="48" xmlns="http://www.w3.org/2000/svg">
  <path d="m10 0h8v48h-8z" fill="#fff"/>
  <path d="m30 0h8v48h-8z" fill="#fff"/>
  <path d="m10-48h8v48h-8z" fill="#fff" transform="rotate(90)"/>
  <path d="m30-48h8v48h-8z" fill="#fff" transform="rotate(90)"/>
</svg>
